<?xml version="1.0" encoding="utf-8"?>
<!-- Generator: Adobe Illustrator 18.1.1, SVG Export Plug-In . SVG Version: 6.00 Build 0)  -->
<svg version="1.1" xmlns="http://www.w3.org/2000/svg" xmlns:xlink="http://www.w3.org/1999/xlink" x="0px" y="0px"
	 viewBox="0 0 22 22" enable-background="new 0 0 22 22" xml:space="preserve">
<g id="Background">
</g>
<g id="Design">
</g>
<g id="Detail">
	<rect x="0" y="0" fill="#89BE20" width="22" height="22"/>
	<path fill="#FFFFFF" d="M14.1,10.6h-2.3v7.8H9.1v-7.8H7.4V8.9h1.7V6.1c0-1.4,1.2-2.6,2.6-2.6h2.5v2.2h-1.8c-0.4,0-0.7,0.3-0.7,0.7
		v2.4h2.9L14.1,10.6z"/>
</g>
</svg>
